Sprecies Distribution Modelling with Tidymodels • tidysdm
…
Let’s create a recipe to apply some common data processing steps to prepare for SDM fitting. We start with step_add_env_vars(), which is a tidymodels function. The rest are standard steps from the recipes package. step_impute_median() imputes missing values (since we will be doing a random forest model which cannot handle missing values). step_YeoJohnson() does a Yeo-Johnson transformation on the predictors, which makes them more symmetric and ‘Gaussian-like’. It also saves the parameters used in the transformation which will be automatically applied to any test data used for prediction later. Finally step_normalize() transforms predictors to have a mean of zero and a standard deviation of 1, so that they are all on the same scale. It also saves the means and sds to be applied to test data. To see the result of the step we run prep() and bake(new_data = NULL).

sdm_recipe <- recipe(dat) %>%
  step_add_env_vars(env = euro.worldclim) %>%
  step_impute_median(all_predictors()) %>%
  step_YeoJohnson(all_predictors()) %>%
  step_normalize(all_predictors())

test <- prep(sdm_recipe) %>%
  bake(NULL)

test
#> # A tibble: 5,260 × 22
#>    present                 pnts pnt_origin   bio1    bio2   bio3     bio4
#>    <fct>            <POINT [°]> <fct>       <dbl>   <dbl>  <dbl>    <dbl>
#>  1 present (-5.171215 43.06957) data       -1.47   0.167   0.777 -0.332  
#>  2 present (-6.036635 43.02531) data       -1.53   0.167   0.777 -0.336  
#>  3 present (-7.679727 40.38852) data        1.07  -0.332  -0.193 -0.0434 
#>  4 present (-7.790437 40.30959) data        0.645 -0.763  -1.16  -0.0264 
#>  5 present  (-7.47334 43.78935) data        1.23  -1.44    1.76  -1.61   
#>  6 present  (-6.575039 42.9107) data       -1.28   0.0786  0.777 -0.248  
#>  7 present (-5.132756 43.49572) data        0.854 -1.35    1.27  -1.33   
#>  8 present (-7.787378 40.39362) data        1.07  -0.332  -0.193 -0.0434 
#>  9 present  (-4.941888 43.3531) data        0.593 -1.35    0.777 -1.27   
#> 10 present  (-7.621731 40.3417) data       -0.644 -1.44   -2.58   0.00321
#> # … with 5,250 more rows, and 15 more variables: bio5 <dbl>, bio6 <dbl>,
#> #   bio7 <dbl>, bio8 <dbl>, bio9 <dbl>, bio10 <dbl>, bio11 <dbl>, bio12 <dbl>,
#> #   bio13 <dbl>, bio14 <dbl>, bio15 <dbl>, bio16 <dbl>, bio17 <dbl>,
#> #   bio18 <dbl>, bio19 <dbl>
…
