Getting Started with {tidysdm} • tidysdm
…
sdm_recipe <- recipe(dat) %>%
  step_add_env_vars(env = euro.worldclim) %>%
  step_impute_median(all_predictors()) %>%
  step_YeoJohnson(all_predictors()) %>%
  step_normalize(all_predictors())

test <- prep(sdm_recipe) %>%
  bake(NULL)

test
#> # A tibble: 5,260 × 22
#>    present                 pnts pnt_origin   bio1    bio2   bio3     bio4
#>    <fct>            <POINT [°]> <fct>       <dbl>   <dbl>  <dbl>    <dbl>
#>  1 present (-5.171215 43.06957) data       -1.46   0.159   0.752 -0.330  
#>  2 present (-6.036635 43.02531) data       -1.52   0.159   0.752 -0.334  
#>  3 present (-7.679727 40.38852) data        1.05  -0.339  -0.214 -0.0405 
#>  4 present (-7.790437 40.30959) data        0.629 -0.769  -1.18  -0.0235 
#>  5 present  (-7.47334 43.78935) data        1.21  -1.45    1.72  -1.61   
#>  6 present  (-6.575039 42.9107) data       -1.26   0.0708  0.752 -0.245  
#>  7 present (-5.132756 43.49572) data        0.836 -1.35    1.24  -1.33   
#>  8 present (-7.787378 40.39362) data        1.05  -0.339  -0.214 -0.0405 
#>  9 present  (-4.941888 43.3531) data        0.578 -1.35    0.752 -1.26   
#> 10 present  (-7.621731 40.3417) data       -0.643 -1.45   -2.61   0.00622
#> # ℹ 5,250 more rows
#> # ℹ 15 more variables: bio5 <dbl>, bio6 <dbl>, bio7 <dbl>, bio8 <dbl>,
#> #   bio9 <dbl>, bio10 <dbl>, bio11 <dbl>, bio12 <dbl>, bio13 <dbl>,
#> #   bio14 <dbl>, bio15 <dbl>, bio16 <dbl>, bio17 <dbl>, bio18 <dbl>,
#> #   bio19 <dbl>
…
